{
  "success": true,
  "data": {
    "majalahpro_core_floating_banner_popup_3": [
      {
        "id": "0e28e5ed-eba1-4b15-800b-0d7452808996",
        "type": "majalahpro_core_floating_banner_popup_3",
        "img": "https:\/\/imgstock.xyz\/wp-content\/uploads\/2021\/07\/popup_l2-1_hepi8.gif",
        "width": 700,
        "height": 210,
        "class": null,
        "link": "https:\/\/google.co.id",
        "alt": "iklan",
        "title": "iklan",
        "rel": "sponsored noopener noreferrer",
        "opt": null,
        "position": null,
        "created_at": "2021-07-26T16:32:15.000000Z",
        "updated_at": "2021-07-26T16:33:11.000000Z"
      },
      
      {
        "id": "b5f8be39-ae83-459b-9d6c-5529e7d0e847",
        "type": "majalahpro_core_floating_banner_popup_3",
        "img": "https:\/\/imgstock.xyz\/wp-content\/uploads\/2021\/07\/popup_l2-1_hepi8.gif",
        "width": 700,
        "height": 210,
        "class": null,
        "link": "https:\/\/google.co.id",
        "alt": "iklan",
        "title": "iklan",
        "rel": "sponsored noopener noreferrer",
        "opt": null,
        "position": null,
        "created_at": "2021-07-26T16:32:24.000000Z",
        "updated_at": "2021-07-26T16:33:08.000000Z"
      }
    ],
    "majalahpro_core_floating_banner_left": [
      {
        "id": "15898af4-1fde-4fa6-9b53-51f191475be9",
        "type": "majalahpro_core_floating_banner_left",
        "img": "https:\/\/i0.wp.com\/157.245.199.80\/wp-content\/uploads\/2021\/05\/mpo777-120x275-1.gif",
        "width": 120,
        "height": 275,
        "class": null,
        "link": "https:\/\/google.co.id",
        "alt": "iklan",
        "title": "iklan",
        "rel": "sponsored noopener noreferrer",
        "opt": null,
        "position": null,
        "created_at": "2021-07-26T14:19:23.000000Z",
        "updated_at": "2021-07-26T14:20:02.000000Z"
      },
      {
        "id": "2096f3b8-34c5-4a94-ac2d-7a0c71df99f7",
        "type": "majalahpro_core_floating_banner_left",
        "img": "https:\/\/i0.wp.com\/157.245.199.80\/wp-content\/uploads\/2021\/05\/mpo777-120x275-1.gif",
        "width": 120,
        "height": 275,
        "class": null,
        "link": "https:\/\/google.co.id",
        "alt": "iklan",
        "title": "iklan",
        "rel": "sponsored noopener noreferrer",
        "opt": null,
        "position": null,
        "created_at": "2021-07-26T14:19:51.000000Z",
        "updated_at": "2021-07-26T14:20:27.000000Z"
      },
      {
        "id": "211bc0bf-991f-4099-bb57-945f4af10374",
        "type": "majalahpro_core_floating_banner_left",
        "img": "https:\/\/i0.wp.com\/157.245.199.80\/wp-content\/uploads\/2021\/05\/mpo777-120x275-1.gif",
        "width": 120,
        "height": 275,
        "class": null,
        "link": "https:\/\/google.co,.id",
        "alt": "iklan",
        "title": "iklan",
        "rel": "sponsored noopener noreferrer",
        "opt": null,
        "position": null,
        "created_at": "2021-07-26T14:19:22.000000Z",
        "updated_at": "2021-07-26T14:19:22.000000Z"
      },
      {
        "id": "21cd977d-9010-4066-a256-bb8c2c56ad12",
        "type": "majalahpro_core_floating_banner_left",
        "img": "https:\/\/i0.wp.com\/157.245.199.80\/wp-content\/uploads\/2021\/05\/mpo777-120x275-1.gif",
        "width": 120,
        "height": 275,
        "class": null,
        "link": "https:\/\/google.co.id",
        "alt": "iklan",
        "title": "iklan",
        "rel": "sponsored noopener noreferrer",
        "opt": null,
        "position": null,
        "created_at": "2021-07-26T14:19:35.000000Z",
        "updated_at": "2021-07-26T14:20:09.000000Z"
      },
      {
        "id": "64d49662-9861-4cd5-83dd-efb2409833bd",
        "type": "majalahpro_core_floating_banner_left",
        "img": "https:\/\/i0.wp.com\/157.245.199.80\/wp-content\/uploads\/2021\/05\/mpo777-120x275-1.gif",
        "width": 120,
        "height": 275,
        "class": null,
        "link": "https:\/\/google.co.id",
        "alt": "iklan",
        "title": "iklan",
        "rel": "sponsored noopener noreferrer",
        "opt": null,
        "position": null,
        "created_at": "2021-07-26T14:19:46.000000Z",
        "updated_at": "2021-07-26T14:31:14.000000Z"
      },
      {
        "id": "f2ae3e60-58a3-40d3-9454-bc00ac4b8e4a",
        "type": "majalahpro_core_floating_banner_left",
        "img": "https:\/\/i0.wp.com\/157.245.199.80\/wp-content\/uploads\/2021\/05\/mpo777-120x275-1.gif",
        "width": 120,
        "height": 275,
        "class": null,
        "link": "https:\/\/google.co.id",
        "alt": "iklan",
        "title": "iklan",
        "rel": "sponsored noopener noreferrer",
        "opt": null,
        "position": null,
        "created_at": "2021-07-26T14:19:39.000000Z",
        "updated_at": "2021-07-26T14:20:16.000000Z"
      }
    ],
    "majalahpro_core_floating_banner_popup_1": [
      {
        "id": "19ad1122-795b-40be-b49f-0f5281dc4bae",
        "type": "majalahpro_core_floating_banner_popup_1",
        "img": "https:\/\/imgstock.xyz\/wp-content\/uploads\/2021\/07\/popup_l2-1_hepi8.gif",
        "width": 700,
        "height": 210,
        "class": null,
        "link": "https:\/\/google.co.id",
        "alt": "iklan",
        "title": "iklan",
        "rel": "sponsored noopener noreferrer",
        "opt": null,
        "position": null,
        "created_at": "2021-07-26T16:30:04.000000Z",
        "updated_at": "2021-07-26T16:30:04.000000Z"
      },
      {
        "id": "5d9e9865-b906-4ad0-b4e6-a071221fbd44",
        "type": "majalahpro_core_floating_banner_popup_1",
        "img": "https:\/\/imgstock.xyz\/wp-content\/uploads\/2021\/07\/popup_l2-1_hepi8.gif",
        "width": 700,
        "height": 210,
        "class": null,
        "link": "https:\/\/google.co.id",
        "alt": "iklan",
        "title": "iklan",
        "rel": "sponsored noopener noreferrer",
        "opt": null,
        "position": null,
        "created_at": "2021-07-26T16:29:59.000000Z",
        "updated_at": "2021-07-26T16:29:59.000000Z"
      },
      {
        "id": "68d08425-bef2-4014-ac4f-978385c00283",
        "type": "majalahpro_core_floating_banner_popup_1",
        "img": "https:\/\/imgstock.xyz\/wp-content\/uploads\/2021\/07\/popup_l2-1_hepi8.gif",
        "width": 700,
        "height": 210,
        "class": null,
        "link": "https:\/\/google.co.id",
        "alt": "iklan",
        "title": "iklan",
        "rel": "sponsored noopener noreferrer",
        "opt": null,
        "position": null,
        "created_at": "2021-07-26T16:29:54.000000Z",
        "updated_at": "2021-07-26T16:29:54.000000Z"
      },
      {
        "id": "b4849cd6-301d-4254-8a68-4b0041ed66a6",
        "type": "majalahpro_core_floating_banner_popup_1",
        "img": "https:\/\/imgstock.xyz\/wp-content\/uploads\/2021\/07\/popup_l2-1_hepi8.gif",
        "width": 700,
        "height": 210,
        "class": null,
        "link": "https:\/\/google.co.id",
        "alt": "iklan",
        "title": "iklan",
        "rel": "sponsored noopener noreferrer",
        "opt": null,
        "position": null,
        "created_at": "2021-07-26T16:29:50.000000Z",
        "updated_at": "2021-07-26T16:29:50.000000Z"
      }
    ],
    "majalahpro_core_floating_banner_right": [
      {
        "id": "1baf9c07-b380-4cf2-b737-1ff3130fbfd7",
        "type": "majalahpro_core_floating_banner_right",
        "img": "https:\/\/i0.wp.com\/157.245.199.80\/wp-content\/uploads\/2021\/05\/mpo777-120x275-1.gif",
        "width": 120,
        "height": 275,
        "class": null,
        "link": "https:\/\/google.co.id",
        "alt": "iklan",
        "title": "iklan",
        "rel": "sponsored noopener noreferrer",
        "opt": null,
        "position": null,
        "created_at": "2021-07-26T14:31:45.000000Z",
        "updated_at": "2021-07-26T14:31:45.000000Z"
      },
      {
        "id": "2488e959-42f5-418f-b48a-2f5f25e69f12",
        "type": "majalahpro_core_floating_banner_right",
        "img": "https:\/\/i0.wp.com\/157.245.199.80\/wp-content\/uploads\/2021\/05\/mpo777-120x275-1.gif",
        "width": 120,
        "height": 275,
        "class": null,
        "link": "https:\/\/google.co.id",
        "alt": "iklan",
        "title": "iklan",
        "rel": "sponsored noopener noreferrer",
        "opt": null,
        "position": null,
        "created_at": "2021-07-26T14:31:29.000000Z",
        "updated_at": "2021-07-26T14:31:29.000000Z"
      },
      {
        "id": "5812c3ba-91a7-46aa-a37d-ae9f24509ab1",
        "type": "majalahpro_core_floating_banner_right",
        "img": "https:\/\/i0.wp.com\/157.245.199.80\/wp-content\/uploads\/2021\/05\/mpo777-120x275-1.gif",
        "width": 120,
        "height": 275,
        "class": null,
        "link": "https:\/\/google.co.id",
        "alt": "iklan",
        "title": "iklan",
        "rel": "sponsored noopener noreferrer",
        "opt": null,
        "position": null,
        "created_at": "2021-07-26T14:31:20.000000Z",
        "updated_at": "2021-07-26T14:31:20.000000Z"
      },
      {
        "id": "826b310e-87fa-4d1f-9281-a3686ba1ec62",
        "type": "majalahpro_core_floating_banner_right",
        "img": "https:\/\/i0.wp.com\/157.245.199.80\/wp-content\/uploads\/2021\/05\/mpo777-120x275-1.gif",
        "width": 120,
        "height": 275,
        "class": null,
        "link": "https:\/\/google.co.id",
        "alt": "iklan",
        "title": "iklan",
        "rel": "sponsored noopener noreferrer",
        "opt": null,
        "position": null,
        "created_at": "2021-07-26T14:31:38.000000Z",
        "updated_at": "2021-07-26T14:31:38.000000Z"
      },
      {
        "id": "886ae3fb-08a6-4402-abb0-f95255beee16",
        "type": "majalahpro_core_floating_banner_right",
        "img": "https:\/\/i0.wp.com\/157.245.199.80\/wp-content\/uploads\/2021\/05\/mpo777-120x275-1.gif",
        "width": 120,
        "height": 275,
        "class": null,
        "link": "https:\/\/google.co.id",
        "alt": "iklan",
        "title": "iklan",
        "rel": "sponsored noopener noreferrer",
        "opt": null,
        "position": null,
        "created_at": "2021-07-26T14:31:25.000000Z",
        "updated_at": "2021-07-26T14:31:25.000000Z"
      },
      {
        "id": "f58445b7-e1b6-4301-8bcb-72313b036394",
        "type": "majalahpro_core_floating_banner_right",
        "img": "https:\/\/i0.wp.com\/157.245.199.80\/wp-content\/uploads\/2021\/05\/mpo777-120x275-1.gif",
        "width": 120,
        "height": 275,
        "class": null,
        "link": "https:\/\/google.co.id",
        "alt": "iklan",
        "title": "iklan",
        "rel": "sponsored noopener noreferrer",
        "opt": null,
        "position": null,
        "created_at": "2021-07-26T14:31:34.000000Z",
        "updated_at": "2021-07-26T14:31:34.000000Z"
      }
    ],
    "majalahpro_core_floating_banner_popup": [
      {
        "id": "39fc7b9b-d59c-4446-8363-55859d10127a",
        "type": "majalahpro_core_floating_banner_popup",
        "img": "https:\/\/imgstock.xyz\/wp-content\/uploads\/2021\/07\/popup_l2-1_hepi8.gif",
        "width": 700,
        "height": 210,
        "class": null,
        "link": "https:\/\/google.co.id",
        "alt": "iklan",
        "title": "iklan",
        "rel": "sponsored noopener noreferrer",
        "opt": null,
        "position": null,
        "created_at": "2021-07-26T15:00:47.000000Z",
        "updated_at": "2021-07-26T15:00:47.000000Z"
      },
      {
        "id": "3f8f163d-ff52-4f21-896d-c54b0509320a",
        "type": "majalahpro_core_floating_banner_popup",
        "img": "https:\/\/imgstock.xyz\/wp-content\/uploads\/2021\/07\/popup_l2-1_hepi8.gif",
        "width": 700,
        "height": 210,
        "class": null,
        "link": "https:\/\/google.co.id",
        "alt": "iklan",
        "title": "iklan",
        "rel": "sponsored noopener noreferrer",
        "opt": null,
        "position": null,
        "created_at": "2021-07-26T15:00:53.000000Z",
        "updated_at": "2021-07-26T15:00:53.000000Z"
      },
      {
        "id": "d4e06721-01c6-40d7-8144-f4f75c905588",
        "type": "majalahpro_core_floating_banner_popup",
        "img": "https:\/\/imgstock.xyz\/wp-content\/uploads\/2021\/07\/popup_l2-1_hepi8.gif",
        "width": 700,
        "height": 210,
        "class": null,
        "link": "https:\/\/google.co.id",
        "alt": "iklan",
        "title": "iklan",
        "rel": "sponsored noopener noreferrer",
        "opt": null,
        "position": null,
        "created_at": "2021-07-26T15:00:58.000000Z",
        "updated_at": "2021-07-26T15:00:58.000000Z"
      },
      {
        "id": "d76af57e-be35-4d77-a00a-038697cf7544",
        "type": "majalahpro_core_floating_banner_popup",
        "img": "https:\/\/imgstock.xyz\/wp-content\/uploads\/2021\/07\/popup_l2-1_hepi8.gif",
        "width": 700,
        "height": 210,
        "class": null,
        "link": "https:\/\/google.co.id",
        "alt": "iklan",
        "title": "iklan",
        "rel": "sponsored noopener noreferrer",
        "opt": null,
        "position": null,
        "created_at": "2021-07-26T15:00:42.000000Z",
        "updated_at": "2021-07-26T15:00:42.000000Z"
      }
    ],
    "majalahpro_core_banner_after_content": [
      {
        "id": "57c71359-92cb-42bc-b01d-5183159a7300",
        "type": "majalahpro_core_banner_after_content",
        "img": "https:\/\/i0.wp.com\/157.245.199.80\/wp-content\/uploads\/2021\/07\/NewNova88.gif",
        "width": 700,
        "height": 90,
        "class": "class",
        "link": "https:\/\/google.co.id",
        "alt": "iklan",
        "title": "iklan",
        "rel": "sponsored noopener noreferrer",
        "opt": "iklan5",
        "position": null,
        "created_at": "2021-07-26T14:09:14.000000Z",
        "updated_at": "2021-07-26T14:14:40.000000Z"
      }
    ],
    "majalahpro_core_add_banner_inside_content": [
      {
        "id": "6b7cd2f7-d81c-4d39-87d0-e59fc27bb565",
        "type": "majalahpro_core_add_banner_inside_content",
        "img": "https:\/\/i0.wp.com\/157.245.199.80\/wp-content\/uploads\/2021\/07\/NewNova88.gif",
        "width": 700,
        "height": 90,
        "class": null,
        "link": "https:\/\/google.co.id",
        "alt": "iklan",
        "title": "iklan",
        "rel": "sponsored noopener noreferrer",
        "opt": null,
        "position": null,
        "created_at": "2021-07-26T14:13:23.000000Z",
        "updated_at": "2021-07-26T14:13:23.000000Z"
      }
    ],
    "majalahpro_core_floating_banner_popup_2": [
      {
        "id": "6c79d7ec-df1c-4618-ac2a-be527504834f",
        "type": "majalahpro_core_floating_banner_popup_2",
        "img": "https:\/\/imgstock.xyz\/wp-content\/uploads\/2021\/07\/popup_l1-2_betmpo.gif",
        "width": 700,
        "height": 210,
        "class": null,
        "link": "https:\/\/google.co.id",
        "alt": "iklan",
        "title": "iklan",
        "rel": "sponsored noopener noreferrer",
        "opt": null,
        "position": null,
        "created_at": "2021-07-26T16:31:13.000000Z",
        "updated_at": "2021-07-26T16:31:13.000000Z"
      },
      {
        "id": "9309cb04-b0da-4fa7-aa6e-ddc83ef9ace8",
        "type": "majalahpro_core_floating_banner_popup_2",
        "img": "https:\/\/imgstock.xyz\/wp-content\/uploads\/2021\/07\/popup_l1-2_betmpo.gif",
        "width": 700,
        "height": 210,
        "class": null,
        "link": "https:\/\/google.co.id",
        "alt": "iklan",
        "title": "iklan",
        "rel": "sponsored noopener noreferrer",
        "opt": null,
        "position": null,
        "created_at": "2021-07-26T16:31:20.000000Z",
        "updated_at": "2021-07-26T16:31:20.000000Z"
      },
      {
        "id": "b10c77f7-ef37-4b6a-a399-42dd66ca36a8",
        "type": "majalahpro_core_floating_banner_popup_2",
        "img": "https:\/\/imgstock.xyz\/wp-content\/uploads\/2021\/07\/popup_l1-2_betmpo.gif",
        "width": 700,
        "height": 210,
        "class": null,
        "link": "https:\/\/google.co.id",
        "alt": "iklan",
        "title": "iklan",
        "rel": "sponsored noopener noreferrer",
        "opt": null,
        "position": null,
        "created_at": "2021-07-26T16:31:09.000000Z",
        "updated_at": "2021-07-26T16:31:09.000000Z"
      },
      {
        "id": "e73371e3-cde7-4bab-994f-d63bd0a14a37",
        "type": "majalahpro_core_floating_banner_popup_2",
        "img": "https:\/\/imgstock.xyz\/wp-content\/uploads\/2021\/07\/popup_l1-2_betmpo.gif",
        "width": 700,
        "height": 210,
        "class": null,
        "link": "https:\/\/google.co.id",
        "alt": "iklan",
        "title": "iklan",
        "rel": "sponsored noopener noreferrer",
        "opt": null,
        "position": null,
        "created_at": "2021-07-26T16:31:04.000000Z",
        "updated_at": "2021-07-26T16:31:04.000000Z"
      }
    ],
    "majalahpro_core_top_banner_after_menu": [
      {
        "id": "7013bd14-07b4-4082-8ad3-96879f791de2",
        "type": "majalahpro_core_top_banner_after_menu",
        "img": "https:\/\/i0.wp.com\/157.245.199.80\/wp-content\/uploads\/2020\/10\/Banner-GIF-7Shot-1150x90-1.gif",
        "width": 1150,
        "height": 90,
        "class": null,
        "link": "https:\/\/google.co.id",
        "alt": "iklan",
        "title": "iklan",
        "rel": "sponsored noopener noreferrer",
        "opt": null,
        "position": null,
        "created_at": "2021-07-26T14:11:34.000000Z",
        "updated_at": "2021-07-26T14:11:34.000000Z"
      }
    ],
    "majalahpro_core_floating_banner_footer": [
      {
        "id": "94da1248-6404-453b-b9aa-12bbc07ab753",
        "type": "majalahpro_core_floating_banner_footer",
        "img": "https:\/\/i0.wp.com\/157.245.199.80\/wp-content\/uploads\/2021\/07\/qqraya-500x70-1.gif",
        "width": 500,
        "height": 70,
        "class": null,
        "link": "https:\/\/google.co.id",
        "alt": "iklan",
        "title": "iklan",
        "rel": "sponsored noopener noreferrer",
        "opt": null,
        "position": null,
        "created_at": "2021-07-26T14:16:10.000000Z",
        "updated_at": "2021-07-26T14:16:24.000000Z"
      },
      {
        "id": "c4c28311-3c7b-4c4d-8c73-38f3268f81ca",
        "type": "majalahpro_core_floating_banner_footer",
        "img": "https:\/\/i0.wp.com\/157.245.199.80\/wp-content\/uploads\/2021\/07\/qqraya-500x70-1.gif",
        "width": 500,
        "height": 70,
        "class": null,
        "link": "https:\/\/google.co.id",
        "alt": "iklan",
        "title": "iklan",
        "rel": "sponsored noopener noreferrer",
        "opt": null,
        "position": null,
        "created_at": "2021-07-26T14:15:39.000000Z",
        "updated_at": "2021-07-26T14:15:39.000000Z"
      }
    ],
    "majalahpro_core_top_banner": [
      {
        "id": "9b8dd6bb-db50-4336-b082-4d77ffb7db49",
        "type": "majalahpro_core_top_banner",
        "img": "https:\/\/i0.wp.com\/157.245.199.80\/wp-content\/uploads\/2020\/06\/DEWASLOT99.gif",
        "width": 1150,
        "height": 90,
        "class": null,
        "link": "https:\/\/google.co.id",
        "alt": "iklan",
        "title": "iklan",
        "rel": "sponsored noopener noreferrer",
        "opt": null,
        "position": null,
        "created_at": "2021-07-26T14:10:57.000000Z",
        "updated_at": "2021-07-26T14:10:57.000000Z"
      },
      {
        "id": "cd040fe1-cbdd-4901-a38c-246fd31daf8f",
        "type": "majalahpro_core_top_banner",
        "img": "https:\/\/i0.wp.com\/157.245.199.80\/wp-content\/uploads\/2020\/06\/DEWASLOT99.gif",
        "width": 1150,
        "height": 90,
        "class": null,
        "link": "https:\/\/google.co.id",
        "alt": "iklan",
        "title": "iklan",
        "rel": "sponsored noopener noreferrer",
        "opt": null,
        "position": null,
        "created_at": "2021-07-26T14:12:14.000000Z",
        "updated_at": "2021-07-26T14:12:14.000000Z"
      }
    ],
    "majalahpro_core_add_banner_inside_content_other": [
      {
        "id": "a3963b8f-a8c1-4d36-9084-e35b63794e27",
        "type": "majalahpro_core_add_banner_inside_content_other",
        "img": "https:\/\/i0.wp.com\/157.245.199.80\/wp-content\/uploads\/2021\/07\/NewNova88.gif",
        "width": 700,
        "height": 90,
        "class": null,
        "link": "https:\/\/google.co.id",
        "alt": "iklan",
        "title": "iklan",
        "rel": "sponsored noopener noreferrer",
        "opt": null,
        "position": null,
        "created_at": "2021-07-26T14:13:59.000000Z",
        "updated_at": "2021-07-26T14:13:59.000000Z"
      }
    ]
  }
}